tidycensus code examples
…
options(tigris_use_cache = TRUE)

# census_api_key("YOUR KEY GOES HERE")

2020 Decennial Census

What variables are available for the 2020 Decennial Census?

Data released for political redistricting pursuant to P.L. 94-171 is dataset “pl”.

dc2020_vars <- load_variables(2020, "pl", cache = TRUE)
dc2020_vars

# A tibble: 301 × 3
   name    label                                                         concept
   <chr>   <chr>                                                         <chr>  
 1 H1_001N " !!Total:"                                                   OCCUPA…
 2 H1_002N " !!Total:!!Occupied"                                         OCCUPA…
 3 H1_003N " !!Total:!!Vacant"                                           OCCUPA…
 4 P1_001N " !!Total:"                                                   RACE   
 5 P1_002N " !!Total:!!Population of one race:"                          RACE   
 6 P1_003N " !!Total:!!Population of one race:!!White alone"             RACE   
 7 P1_004N " !!Total:!!Population of one race:!!Black or African Americ… RACE   
 8 P1_005N " !!Total:!!Population of one race:!!American Indian and Ala… RACE   
 9 P1_006N " !!Total:!!Population of one race:!!Asian alone"             RACE   
10 P1_007N " !!Total:!!Population of one race:!!Native Hawaiian and Oth… RACE   
# … with 291 more rows
…
Getting data from the 2020 decennial Census

Using the PL 94-171 Redistricting Data summary file

Note: 2020 decennial Census data use differential privacy, a technique that
introduces errors into data to preserve respondent confidentiality.
ℹ Small counts should be interpreted with caution.
ℹ See https://www.census.gov/library/fact-sheets/2021/protecting-the-confidentiality-of-the-2020-census-redistricting-data.html for additional guidance.
This message is displayed once per session.

ne_pop_2020

# A tibble: 93 × 4
   GEOID NAME                    variable value
   <chr> <chr>                   <chr>    <dbl>
 1 31005 Arthur County, Nebraska P2_001N    434
 2 31011 Boone County, Nebraska  P2_001N   5379
 3 31017 Brown County, Nebraska  P2_001N   2903
 4 31023 Butler County, Nebraska P2_001N   8369
 5 31029 Chase County, Nebraska  P2_001N   3893
 6 31035 Clay County, Nebraska   P2_001N   6104
 7 31039 Cuming County, Nebraska P2_001N   9013
 8 31045 Dawes County, Nebraska  P2_001N   8199
 9 31051 Dixon County, Nebraska  P2_001N   5606
10 31057 Dundy County, Nebraska  P2_001N   1654
# … with 83 more rows
…
ne_race_ethnicity_2020 <- get_decennial(
  geography = "county",
  variables = variables,
  year = 2020,
  state = "NE", # <=
  # output = "wide"
)

Getting data from the 2020 decennial Census

Using the PL 94-171 Redistricting Data summary file

ne_race_ethnicity_2020

# A tibble: 837 × 4
   GEOID NAME                    variable value
   <chr> <chr>                   <chr>    <dbl>
 1 31005 Arthur County, Nebraska P2_001N    434
 2 31011 Boone County, Nebraska  P2_001N   5379
 3 31017 Brown County, Nebraska  P2_001N   2903
 4 31023 Butler County, Nebraska P2_001N   8369
 5 31029 Chase County, Nebraska  P2_001N   3893
 6 31035 Clay County, Nebraska   P2_001N   6104
 7 31039 Cuming County, Nebraska P2_001N   9013
 8 31045 Dawes County, Nebraska  P2_001N   8199
 9 31051 Dixon County, Nebraska  P2_001N   5606
10 31057 Dundy County, Nebraska  P2_001N   1654
# … with 827 more rows
…
ne_race_ethnicity_2020 <- get_decennial(
  geography = "county",
  variables = variables,
  year = 2020,
  state = "NE", # <=
  output = "wide"
)

Getting data from the 2020 decennial Census

Using the PL 94-171 Redistricting Data summary file

ne_race_ethnicity_2020

# A tibble: 93 × 11
   GEOID NAME    P2_001N P2_005N P2_002N P2_006N P2_007N P2_008N P2_009N P2_010N
   <chr> <chr>     <dbl>   <dbl>   <dbl>   <dbl>   <dbl>   <dbl>   <dbl>   <dbl>
 1 31005 Arthur…     434     400      12       3       0       0       0       0
 2 31011 Boone …    5379    5057     183      21      15       7       0       6
 3 31017 Brown …    2903    2629     176       2       7       6       0       2
 4 31023 Butler…    8369    7626     482      28      22       9       1      23
 5 31029 Chase …    3893    3209     562      20       2      11       0       2
 6 31035 Clay C…    6104    5372     523       8      13      10       0      14
 7 31039 Cuming…    9013    7638    1112      21      26      18       9      23
 8 31045 Dawes …    8199    6943     328     164     322      53       6      21
 9 31051 Dixon …    5606    4643     796      17      19      17       0       8
10 31057 Dundy …    1654    1491     103       7       9       1       3       4
# … with 83 more rows, and 1 more variable: P2_011N <dbl>
…
Getting data from the 2020 decennial Census

Using the PL 94-171 Redistricting Data summary file

ne_race_ethnicity_2020

# A tibble: 744 × 5
   GEOID NAME                    variable value summary_value
   <chr> <chr>                   <chr>    <dbl>         <dbl>
 1 31005 Arthur County, Nebraska White      400           434
 2 31011 Boone County, Nebraska  White     5057          5379
 3 31017 Brown County, Nebraska  White     2629          2903
 4 31023 Butler County, Nebraska White     7626          8369
 5 31029 Chase County, Nebraska  White     3209          3893
 6 31035 Clay County, Nebraska   White     5372          6104
 7 31039 Cuming County, Nebraska White     7638          9013
 8 31045 Dawes County, Nebraska  White     6943          8199
 9 31051 Dixon County, Nebraska  White     4643          5606
10 31057 Dundy County, Nebraska  White     1491          1654
# … with 734 more rows
…
Now we also have a separate column called summary_value that contains the total population for each county. That makes it convenient to calculate percentages. Here we compute the percentage of the population that is Hispanic or Latino for each county.

ne_hispanic_percent <- ne_race_ethnicity_2020 |>
  filter(variable == "Hispanic") |>
  mutate(percent = 100 * (value / summary_value)) |>
  select(NAME, percent)

ne_hispanic_percent

# A tibble: 93 × 2
   NAME                    percent
   <chr>                     <dbl>
 1 Arthur County, Nebraska    2.76
 2 Boone County, Nebraska     3.40
 3 Brown County, Nebraska     6.06
 4 Butler County, Nebraska    5.76
 5 Chase County, Nebraska    14.4 
 6 Clay County, Nebraska      8.57
 7 Cuming County, Nebraska   12.3 
 8 Dawes County, Nebraska     4.00
 9 Dixon County, Nebraska    14.2 
10 Dundy County, Nebraska     6.23
# … with 83 more rows
…
Getting data from the 2020 decennial Census

Using the PL 94-171 Redistricting Data summary file

ne_race_ethnicity_2020

Simple feature collection with 744 features and 5 fields
Geometry type: MULTIPOLYGON
Dimension:     XY
Bounding box:  xmin: -104.0535 ymin: 40 xmax: -95.30829 ymax: 43.00171
Geodetic CRS:  NAD83
# A tibble: 744 × 6
   GEOID NAME             variable value summary_value                  geometry
   <chr> <chr>            <chr>    <dbl>         <dbl>        <MULTIPOLYGON [°]>
 1 31105 Kimball County,… White     3026          3434 (((-104.0534 41.17054, -…
 2 31105 Kimball County,… Hispanic   262          3434 (((-104.0534 41.17054, -…
 3 31105 Kimball County,… Black        1          3434 (((-104.0534 41.17054, -…
 4 31105 Kimball County,… Native      24          3434 (((-104.0534 41.17054, -…
 5 31105 Kimball County,… Asian       15          3434 (((-104.0534 41.17054, -…
 6 31105 Kimball County,… HIPI         0          3434 (((-104.0534 41.17054, -…
 7 31105 Kimball County,… Other        9          3434 (((-104.0534 41.17054, -…
 8 31105 Kimball County,… TwoOrMo…    97          3434 (((-104.0534 41.17054, -…
 9 31069 Garden County, … White     1722          1874 (((-102.6784 41.87489, -…
10 31069 Garden County, … Hispanic    88          1874 (((-102.6784 41.87489, -…
# … with 734 more rows
…
Next we recompute the percentage Hispanic or Latino.

ne_hispanic_percent <- ne_race_ethnicity_2020 |>
  filter(variable == "Hispanic") |>
  mutate(percent = 100 * (value / summary_value)) |>
  select(NAME, percent)

ne_hispanic_percent

Simple feature collection with 93 features and 2 fields
Geometry type: MULTIPOLYGON
Dimension:     XY
Bounding box:  xmin: -104.0535 ymin: 40 xmax: -95.30829 ymax: 43.00171
Geodetic CRS:  NAD83
# A tibble: 93 × 3
   NAME                       percent                                   geometry
   <chr>                        <dbl>                         <MULTIPOLYGON [°]>
 1 Kimball County, Nebraska     7.63  (((-104.0534 41.17054, -104.0532 41.19995…
 2 Garden County, Nebraska      4.70  (((-102.6784 41.87489, -102.6772 41.99066…
 3 Wheeler County, Nebraska     2.58  (((-98.76116 42.08852, -98.71327 42.08851…
 4 Greeley County, Nebraska     2.38  (((-98.75222 41.74037, -98.69451 41.74043…
 5 Thomas County, Nebraska      4.33  (((-100.8461 42.08817, -100.8119 42.0881,…
 6 Hooker County, Nebraska      1.55  (((-101.4266 42.09219, -101.4122 42.09211…
 7 Perkins County, Nebraska     5.11  (((-102.0518 41.00387, -102.0332 41.00313…
 8 Dawes County, Nebraska       4.00  (((-103.5051 43.00077, -103.4046 43.00074…
 9 Holt County, Nebraska        5.14  (((-99.25704 42.8043, -99.25215 42.80782,…
10 McPherson County, Nebraska   0.752 (((-101.4073 41.40985, -101.4071 41.43708…
# … with 83 more rows
…
2016-2020 American Community Survey (ACS)

Working with the ACS is similar. We start by getting a list of available variables.

acs5_2020_vars <- load_variables(2020, "acs5", cache = TRUE)
acs5_2020_vars

# A tibble: 27,850 × 4
   name       label                                    concept    geography  
   <chr>      <chr>                                    <chr>      <chr>      
 1 B01001_001 Estimate!!Total:                         SEX BY AGE block group
 2 B01001_002 Estimate!!Total:!!Male:                  SEX BY AGE block group
 3 B01001_003 Estimate!!Total:!!Male:!!Under 5 years   SEX BY AGE block group
 4 B01001_004 Estimate!!Total:!!Male:!!5 to 9 years    SEX BY AGE block group
 5 B01001_005 Estimate!!Total:!!Male:!!10 to 14 years  SEX BY AGE block group
 6 B01001_006 Estimate!!Total:!!Male:!!15 to 17 years  SEX BY AGE block group
 7 B01001_007 Estimate!!Total:!!Male:!!18 and 19 years SEX BY AGE block group
 8 B01001_008 Estimate!!Total:!!Male:!!20 years        SEX BY AGE block group
 9 B01001_009 Estimate!!Total:!!Male:!!21 years        SEX BY AGE block group
10 B01001_010 Estimate!!Total:!!Male:!!22 to 24 years  SEX BY AGE block group
# … with 27,840 more rows
…
